[{
    "id":1,
    "name":"Ноутбук HP Pavilion Gaming 15-ec2013ua Shadow",
    "price":"24 999",
    "pathPicture":"https://content1.rozetka.com.ua/goods/images/big_tile/247214370.jpg",
    "vendorCode":"4A7M9EA",
    "color":"Black",
    "favorite":false
},
{
    "id":2,
    "name":"Ноутбук ASUS Laptop X415FA-EB013 Slate",
    "price":"13 999",
    "pathPicture":"https://content.rozetka.com.ua/goods/images/big_tile/252123791.jpg",
    "vendorCode":"90NB0W12-M00150",
    "color":"Gray",
    "favorite":false
},
{
    "id":3,
    "name":"Ноутбук Lenovo IdeaPad 3 15IIL05 Platinum Суперцена!!!",
    "price":"16 799",
    "pathPicture":"https://content2.rozetka.com.ua/goods/images/big_tile/178046133.jpg",
    "vendorCode":"81WE012VRA",
    "color":"Gray",
    "favorite":false
},
{
    "id":4,
    "name":"Ноутбук Apple MacBook Air 13 M1 256GB 2020",
    "price":"33 999",
    "pathPicture":"https://content.rozetka.com.ua/goods/images/big/30872664.jpg",
    "vendorCode":"MGND3",
    "color":"Gold",
    "favorite":false
},
{
    "id":5,
    "name":"Ноутбук ASUS TUF Gaming F15 FX506LH-HN153 Fortress + мышь Asus TUF M5",
    "price":"29 499",
    "pathPicture":"https://content2.rozetka.com.ua/goods/images/big_tile/238662391.jpg",
    "vendorCode":"90NR03U1-M08940",
    "color":"Gray",
    "favorite":false
},
{
    "id":6,
    "name":"Ноутбук Asus ROG Strix G15 (2022) G513RC-HN088 Eclipse / AMD Ryzen 7 6800H (3.2 - 4.7 ГГц) / RAM 16 ГБ / SSD 512 ГБ / nVidia GeForce RTX 3050",
    "price":"37 999",
    "pathPicture":"https://content1.rozetka.com.ua/goods/images/big_tile/254840624.jpg",
    "vendorCode":"90NR08A5-M00640",
    "color":"Gray",
    "favorite":false
},
{
    "id":7,
    "name":"Ноутбук ASUS Laptop X515MA-EJ493 Transparent Silver",
    "price":"11 999",
    "pathPicture":"https://content1.rozetka.com.ua/goods/images/big_tile/253733522.jpg",
    "vendorCode":"90NB0TH2-M006Z0",
    "color":"Gray",
    "favorite":false
},
{
    "id":8,
    "name":"Ноутбук Asus ROG Zephyrus M16 (2022) GU603ZW-K8058 Off / Intel Core i9-12900H / RAM 32 ГБ / SSD 1 ТБ / nVidia GeForce RTX 3070 Ti",
    "price":"89 999",
    "pathPicture":"https://content.rozetka.com.ua/goods/images/big_tile/252444569.jpg",
    "vendorCode":"90NR0831-M002S0",
    "color":"Black",
    "favorite":false
},
{
    "id":9,
    "name":"Ноутбук Apple MacBook Pro 13 M1 256GB 2020 Custom Space",
    "price":"54 499",
    "pathPicture":"https://content2.rozetka.com.ua/goods/images/big_tile/175329107.jpg",
    "vendorCode":"Z11B000Q8",
    "color":"Gray",
    "favorite":false
},
{
    "id":10,
    "name":"Ноутбук Dell Vostro 15 3515",
    "price":"15 499",
    "pathPicture":"https://content1.rozetka.com.ua/goods/images/big_tile/228991359.jpg",
    "vendorCode":"N6262VN3515UA_UBU",
    "color":"Black",
    "favorite":false
}
]